{
  "name": {
    "en": "Planning items",
    "es": "Items de la Planificación"
  },
  "description": {
    "en": "Added items at planning level",
    "es": "Agrega una lista de items a nivel de planificación. Estos ítems estan a un nivel más general que los ítems utilizados a nivel de la convocatoria y sirven de referencia general a qué es lo que se va a comprar"
  },
  "documentationUrl": {
    "en": "https://gitlab.com/dncp-opendata/ocds_planning_items_extension"
  },
  "compatibility": [
    "1.1"
  ],
  "schemas": [
    "release-schema.json"
  ]
}
